[
  {
    "id": 0,
    "name": "Victor Duncan",
    "gender": "M",
    "ratings": 4,
    "salary": 7500,
    "email": "victor.duncan@wettingen.com"
  },
  {
    "id": 1,
    "name": "Dylan Lyman",
    "gender": "M",
    "ratings": 4.4,
    "salary": 7500,
    "email": "dylan.lyman@weinfelden.com"
  },
  {
    "id": 2,
    "name": "Carol Oliver",
    "gender": "F",
    "ratings": 3.9,
    "salary": 3750,
    "email": "carol.oliver@sargans.com"
  },
  {
    "id": 3,
    "name": "Julia Lyman",
    "gender": "F",
    "ratings": 2.6,
    "salary": 12000,
    "email": "julia.lyman@opfikon.com"
  },
  {
    "id": 4,
    "name": "Edward Hart",
    "gender": "M",
    "ratings": 3.9,
    "salary": 16500,
    "email": "edward.hart@rheinfelden.com"
  },
  {
    "id": 5,
    "name": "Kevin Grant",
    "gender": "M",
    "ratings": 2.3,
    "salary": 10500,
    "email": "kevin.grant@frauenfeld.com"
  },
  {
    "id": 6,
    "name": "Lucas Ferguson",
    "gender": "M",
    "ratings": 4.5,
    "salary": 5250,
    "email": "lucas.ferguson@sargans.com"
  },
  {
    "id": 7,
    "name": "Warren Black",
    "gender": "M",
    "ratings": 3.4,
    "salary": 15000,
    "email": "warren.black@arlesheim.com"
  },
  {
    "id": 8,
    "name": "Michelle Morgan",
    "gender": "F",
    "ratings": 1.8,
    "salary": 7500,
    "email": "michelle.morgan@villeneuve.com"
  },
  {
    "id": 9,
    "name": "Robert Mackenzie",
    "gender": "M",
    "ratings": 4.7,
    "salary": 3750,
    "email": "robert.mackenzie@versoix.com"
  },
  {
    "id": 10,
    "name": "Adam Piper",
    "gender": "M",
    "ratings": 2.4,
    "salary": 3750,
    "email": "adam.piper@opfikon.com"
  },
  {
    "id": 11,
    "name": "Jasmine Underwood",
    "gender": "F",
    "ratings": 3.5,
    "salary": 7500,
    "email": "jasmine.underwood@chiasso.com"
  },
  {
    "id": 12,
    "name": "Simon Peters",
    "gender": "M",
    "ratings": 3,
    "salary": 17250,
    "email": "simon.peters@steffis.com"
  },
  {
    "id": 13,
    "name": "Sean McGrath",
    "gender": "M",
    "ratings": 4.3,
    "salary": 9000,
    "email": "sean.mcgrath@binningen.com"
  },
  {
    "id": 14,
    "name": "Nicola Harris",
    "gender": "F",
    "ratings": 3.8,
    "salary": 10500,
    "email": "nicola.harris@prilly.com"
  },
  {
    "id": 15,
    "name": "Sue Peake",
    "gender": "F",
    "ratings": 3.1,
    "salary": 12000,
    "email": "sue.peake@conthey.com"
  },
  {
    "id": 16,
    "name": "Neil Newman",
    "gender": "M",
    "ratings": 2.4,
    "salary": 14250,
    "email": "neil.newman@zofingen.com"
  },
  {
    "id": 17,
    "name": "Phil Newman",
    "gender": "M",
    "ratings": 1.6,
    "salary": 13500,
    "email": "phil.newman@langenthal.com"
  },
  {
    "id": 18,
    "name": "Sebastian Lyman",
    "gender": "M",
    "ratings": 1.8,
    "salary": 11250,
    "email": "sebastian.lyman@aarbrix.com"
  },
  {
    "id": 19,
    "name": "Audrey Campbell",
    "gender": "F",
    "ratings": 3.7,
    "salary": 9000,
    "email": "audrey.campbell@meyrittornontreux.com"
  },
  {
    "id": 20,
    "name": "Peter Davidson",
    "gender": "M",
    "ratings": 3.2,
    "salary": 7500,
    "email": "peter.davidson@sierre.com"
  },
  {
    "id": 21,
    "name": "Samantha Jackson",
    "gender": "F",
    "ratings": 4.7,
    "salary": 4500,
    "email": "samantha.jackson@orbe.com"
  },
  {
    "id": 22,
    "name": "David Parr",
    "gender": "M",
    "ratings": 4.8,
    "salary": 17250,
    "email": "david.parr@affoltern.com"
  },
  {
    "id": 23,
    "name": "Ruth Oliver",
    "gender": "F",
    "ratings": 2.2,
    "salary": 12750,
    "email": "ruth.oliver@riehen.com"
  },
  {
    "id": 24,
    "name": "Diana Bower",
    "gender": "F",
    "ratings": 1.5,
    "salary": 10500,
    "email": "diana.bower@vernier.com"
  }
]